;******************************************************************************
;*
;*  TX8 8-bit color computer
;*
;*  files.i
;*    Include file containing usefull macros and data structures used in and
;*    needed to perform function calls from external programs.
;*
;******************************************************************************

  .import   txfs_mount
  
