;******************************************************************************
;*
;*  TX8 8-bit color computer
;*
;*  txfs_data.i
;*
;******************************************************************************

.import   part_info
.import   part_sect
.import   part_info_len: zeropage
.import   byte_bits
