    .import         vdp_wr_reg
    .import         vdp_rd_vram
    .import         vdp_wr_vram
    .import         vdp_rd_addr
    .import         vdp_wr_addr
    .import         vdp_peek
    .import         vdp_poke
