;******************************************************************************
;*
;*  TX8 8-bit color computer
;*
;*  iocb.i
;*
;******************************************************************************
